
% frame   0
% time 0.000
% report space
%    class  identity
      cell         1    circle
% end

% frame   1
% time 0.250
% report space
%    class  identity
      cell         1    circle
% end

% frame   2
% time 0.500
% report space
%    class  identity
      cell         1    circle
% end

% frame   3
% time 0.750
% report space
%    class  identity
      cell         1    circle
% end

% frame   4
% time 1.000
% report space
%    class  identity
      cell         1    circle
% end

% frame   5
% time 1.250
% report space
%    class  identity
      cell         1    circle
% end

% frame   6
% time 1.500
% report space
%    class  identity
      cell         1    circle
% end

% frame   7
% time 1.750
% report space
%    class  identity
      cell         1    circle
% end

% frame   8
% time 2.000
% report space
%    class  identity
      cell         1    circle
% end

% frame   9
% time 2.250
% report space
%    class  identity
      cell         1    circle
% end

% frame   10
% time 2.500
% report space
%    class  identity
      cell         1    circle
% end

% frame   11
% time 2.750
% report space
%    class  identity
      cell         1    circle
% end

% frame   12
% time 3.000
% report space
%    class  identity
      cell         1    circle
% end

% frame   13
% time 3.250
% report space
%    class  identity
      cell         1    circle
% end

% frame   14
% time 3.500
% report space
%    class  identity
      cell         1    circle
% end

% frame   15
% time 3.750
% report space
%    class  identity
      cell         1    circle
% end

% frame   16
% time 4.000
% report space
%    class  identity
      cell         1    circle
% end

% frame   17
% time 4.250
% report space
%    class  identity
      cell         1    circle
% end

% frame   18
% time 4.500
% report space
%    class  identity
      cell         1    circle
% end

% frame   19
% time 4.750
% report space
%    class  identity
      cell         1    circle
% end

% frame   20
% time 5.000
% report space
%    class  identity
      cell         1    circle
% end
